[gd_scene load_steps=9 format=2]

[ext_resource path="res://Cell.gd" type="Script" id=1]
[ext_resource path="res://cell scripts/default cell.png" type="Texture" id=2]
[ext_resource path="res://cell scripts/hover.png" type="Texture" id=3]
[ext_resource path="res://cell scripts/nosum cell2.png" type="Texture" id=4]
[ext_resource path="res://cell scripts/mov cell.png" type="Texture" id=5]
[ext_resource path="res://cell scripts/beginning zone cell.png" type="Texture" id=6]

[sub_resource type="SpriteFrames" id=1]
animations = [ {
"frames": [ ExtResource( 6 ) ],
"loop": true,
"name": "begin",
"speed": 5.0
}, {
"frames": [ ExtResource( 2 ) ],
"loop": true,
"name": "default",
"speed": 0.0
}, {
"frames": [ ExtResource( 3 ) ],
"loop": true,
"name": "hover",
"speed": 5.0
}, {
"frames": [ ExtResource( 5 ) ],
"loop": true,
"name": "mov",
"speed": 5.0
}, {
"frames": [ ExtResource( 4 ) ],
"loop": true,
"name": "nosum",
"speed": 5.0
} ]

[sub_resource type="CircleShape2D" id=2]
radius = 140.286

[node name="Cell" type="Area2D"]
script = ExtResource( 1 )

[node name="Sprite" type="AnimatedSprite" parent="."]
position = Vector2( 478.923, 252.816 )
scale = Vector2( 0.5, 0.5 )
frames = SubResource( 1 )
playing = true

[node name="box" type="CollisionShape2D" parent="."]
position = Vector2( 479.304, 268.706 )
rotation = 1.69415
shape = SubResource( 2 )

[connection signal="mouse_entered" from="." to="." method="_on_Cell_mouse_entered"]
[connection signal="mouse_exited" from="." to="." method="_on_Cell_mouse_exited"]
