[gd_scene load_steps=4 format=2]

[ext_resource path="res://p1.tscn" type="PackedScene" id=1]
[ext_resource path="res://p2.tscn" type="PackedScene" id=2]
[ext_resource path="res://TurnQueue.gd" type="Script" id=3]

[node name="TurnQueue" type="Node"]
script = ExtResource( 3 )

[node name="p1" parent="." instance=ExtResource( 1 )]

[node name="p2" parent="." instance=ExtResource( 2 )]
[connection signal="turn_pass" from="." to="p1" method="_on_TurnQueue_turn_pass"]
[connection signal="turn_pass" from="." to="p2" method="_on_TurnQueue_turn_pass"]
