[gd_scene load_steps=4 format=2]

[ext_resource path="res://piece scripts/p1 Priestess.gd" type="Script" id=1]
[ext_resource path="res://piece sprites/sympriestessw.png" type="Texture" id=2]

[sub_resource type="RectangleShape2D" id=1]
extents = Vector2( 73.998, 98.9396 )

[node name="p1 Priestess" type="StaticBody2D"]
input_pickable = true
script = ExtResource( 1 )

[node name="sprite" type="Sprite" parent="."]
position = Vector2( 69, 0 )
texture = ExtResource( 2 )

[node name="PCollision" type="CollisionShape2D" parent="."]
shape = SubResource( 1 )
[connection signal="input_event" from="." to="." method="_on_p1_Priestess_input_event"]
