[gd_scene load_steps=4 format=2]

[ext_resource path="res://piece sprites/symsylphb.png" type="Texture" id=1]
[ext_resource path="res://piece scripts/p2 Sylph.gd" type="Script" id=2]

[sub_resource type="RectangleShape2D" id=1]
extents = Vector2( 73.998, 98.9396 )

[node name="p2 Sylph" type="StaticBody2D"]
input_pickable = true
script = ExtResource( 2 )

[node name="sprite" type="Sprite" parent="."]
texture = ExtResource( 1 )

[node name="PCollision" type="CollisionShape2D" parent="."]
shape = SubResource( 1 )
[connection signal="input_event" from="." to="." method="_on_p2_Sylph_input_event"]
